{
    "nightModeMask": "",
    "quicklinks": [
        {
            "isDelete": false,
            "position": 0,
            "title": "上网导航",
            "thumbnail": "eb193143-c594-403f-914e-f8ddcad828ab.png",
            "siteId": 4,
            "favicon": "",
            "movable": true,
            "displayName": "上网导航",
            "recommend": false,
            "url": "http://miui.com/r?url=http%3A%2F%2Fhao.xiaomi.com%2F%3Ffrom%3Dmibrowser&fr=qt2",
            "logobg": "5a267092-f3ec-4355-9312-d08873506aea.png"
        },
        {
            "isDelete": true,
            "position": 1,
            "title": "百度",
            "thumbnail": "61672c2e-36b5-48cb-946d-b2911d1925ae.png",
            "siteId": 5,
            "favicon": "",
            "movable": true,
            "displayName": "百度",
            "recommend": false,
            "url": "http://miui.com/r?url=http%3A%2F%2Fm.baidu.com%2F%3Ffrom%3D1269a&fr=qt2",
            "logobg": "118266c1-23e9-4e71-8081-a482cd6240ed.png"
        },
        {
            "isDelete": true,
            "position": 2,
            "title": "新浪",
            "thumbnail": "f1a43a09-c4b0-42f8-8c57-3fd252f51c20.png",
            "siteId": 6,
            "favicon": "",
            "movable": true,
            "displayName": "新浪",
            "recommend": false,
            "url": "http://miui.com/r?url=http%3A%2F%2Fsina.cn%2F%3Fwm%3D3165_0003&fr=qt2",
            "logobg": "09f805c4-7385-441a-baa9-dd3f1fe4a202.png"
        },
        {
            "isDelete": true,
            "position": 3,
            "title": "爱淘宝",
            "thumbnail": "8f85cf4d-078a-4318-91f5-55c948d4b585.png",
            "siteId": 8,
            "favicon": "",
            "movable": true,
            "displayName": "爱淘宝",
            "recommend": false,
            "url": "http://miui.com/r?url=http%3A%2F%2Fai.m.taobao.com%2Fvip%2F%3Fpid%3Dmm_32549094_4132303_13390117&fr=qt2",
            "logobg": "7a60fb5a-e655-4861-a10e-d34f3922a3c7.png"
        },
        {
            "isDelete": true,
            "position": 4,
            "title": "唯品会",
            "thumbnail": "4690e59b-7f1a-4c49-8667-f9db42ed5289.png",
            "siteId": 9,
            "favicon": "",
            "movable": true,
            "displayName": "唯品会",
            "recommend": false,
            "url": "http://miui.com/r?url=http%3A%2F%2Fclick.union.vip.com%2Fredirect.php%3Furl%3DeyJkZXN0dXJsIjoiaHR0cDpcL1wvbS52aXAuY29tXC8%2FZj1teG1nZ2UiLCJ1Y29kZSI6InQ4bnl0ZmZ0Iiwic2NoZW1lY29kZSI6IjcyMzU4M2UxIiwiY2hhbiI6Im14bWdnZSJ9&fr=qt2",
            "logobg": "f58b2918-04ab-4d79-a55b-eaba7651ee3a.png"
        },
        {
            "isDelete": true,
            "position": 5,
            "title": "淘宝网",
            "thumbnail": "3047b86f-caf9-4940-b213-204ca359bb45.png",
            "siteId": 15,
            "favicon": "",
            "movable": true,
            "displayName": "淘宝网",
            "recommend": false,
            "url": "http://miui.com/r?url=http%3A%2F%2Fm.taobao.com%2F&fr=qt2",
            "logobg": "f046657d-18e6-4a08-ace3-9cbb72318eeb.png"
        },
        {
            "isDelete": true,
            "position": 6,
            "title": "去哪儿",
            "thumbnail": "64b78032-4f4f-4d37-89ec-34793c81afac.png",
            "siteId": 10,
            "favicon": "",
            "movable": true,
            "displayName": "去哪儿",
            "recommend": false,
            "url": "http://miui.com/r?url=http%3A%2F%2Ftouch.qunar.com%2F%3Fbd_source%3Dxiaomigongge&fr=qt2",
            "logobg": "81a57379-d0ed-40ce-a846-7e98137da246.png"
        },
        {
            "isDelete": true,
            "position": 7,
            "title": "58",
            "thumbnail": "a1c3b909-cef4-401d-ba53-855927d6a767.png",
            "siteId": 11,
            "favicon": "",
            "movable": true,
            "displayName": "58",
            "recommend": false,
            "url": "http://miui.com/r?url=http%3A%2F%2Fm.58.com%2F%3Futm_source%3Dxmgg&fr=qt2",
            "logobg": "cc2788c4-3bcd-4266-ac18-81d8a9864d80.png"
        },
        {
            "isDelete": true,
            "position": 8,
            "title": "读小说",
            "thumbnail": "e9e9678a-4a09-4c27-b9df-2ebff2987d50.png",
            "siteId": 12,
            "favicon": "",
            "movable": true,
            "displayName": "读小说",
            "recommend": false,
            "url": "http://miui.com/r?url=http%3A%2F%2Freader.browser.miui.com%2F%23from%3Dmiindex&fr=qt2",
            "logobg": "da0258b6-9885-4311-bf8a-ce4f663f94db.png"
        },
        {
            "isDelete": true,
            "position": 9,
            "title": "小米网",
            "thumbnail": "797af286-cd83-4e6e-af55-a9da0472fe98.png",
            "siteId": 14,
            "favicon": "",
            "movable": true,
            "displayName": "小米网",
            "recommend": false,
            "url": "http://miui.com/r?url=http%3A%2F%2Fa.union.mi.com%2Fmua%3Fc%3D10508.0001&fr=qt2",
            "logobg": "7a60fb5a-e655-4861-a10e-d34f3922a3c7.png"
        },
        {
            "isDelete": true,
            "position": 10,
            "title": "玩游戏",
            "thumbnail": "53159590-4cd4-4589-9d22-a0656eaa707e.png",
            "siteId": 13,
            "favicon": "",
            "movable": true,
            "displayName": "玩游戏",
            "recommend": false,
            "url": "http://miui.com/r?url=http%3A%2F%2Fgame.xiaomi.com%2Fwap%2Findex.php&fr=qt2",
            "logobg": "7a60fb5a-e655-4861-a10e-d34f3922a3c7.png"
        },
        {
            "isDelete": true,
            "position": 11,
            "title": "轻应用",
            "thumbnail": "8b8b8cc1-a4a8-4c5a-b238-0295a9620265.png",
            "siteId": 85,
            "favicon": "",
            "movable": true,
            "displayName": "轻应用",
            "recommend": false,
            "url": "http://miui.com/r?url=Intent%3D%7Bcomponent%3Dcom.android.browser%2Fmiui.browser.webapps.WebAppCenterActivity%7D&fr=qt2",
            "logobg": "18dd28c2-191f-4d53-b61e-01f577696f48.png"
        }
    ],
    "quicklinkgroups": [
        {
            "sites": [
                {
                    "title": "百度",
                    "thumbnail": "61672c2e-36b5-48cb-946d-b2911d1925ae.png",
                    "displayName": "百度",
                    "siteId": 5,
                    "favicon": "",
                    "url": "http://miui.com/r?url=http%3A%2F%2Fm.baidu.com%2F%3Ffrom%3D1269a&fr=qt2",
                    "logobg": "118266c1-23e9-4e71-8081-a482cd6240ed.png"
                },
                {
                    "title": "新浪",
                    "thumbnail": "f1a43a09-c4b0-42f8-8c57-3fd252f51c20.png",
                    "displayName": "新浪",
                    "siteId": 6,
                    "favicon": "",
                    "url": "http://miui.com/r?url=http%3A%2F%2Fsina.cn%2F%3Fwm%3D3165_0003&fr=qt2",
                    "logobg": "09f805c4-7385-441a-baa9-dd3f1fe4a202.png"
                },
                {
                    "title": "搜狐",
                    "thumbnail": "1c46e3d5-bd37-4d3b-b522-ee68d7669493.png",
                    "displayName": "搜狐",
                    "siteId": 19,
                    "favicon": "",
                    "url": "http://miui.com/r?url=http%3A%2F%2Fm.sohu.com%2F%3Fpartner%3Dxiaomi%26_trans_%3D000012_xm_sy&fr=qt2",
                    "logobg": "fd9448f1-5f00-4a3d-be71-e68a755ca8c6.png"
                },
                {
                    "title": "腾讯网",
                    "thumbnail": "d4114a0f-5e3f-432f-8423-915608fa7fbc.png",
                    "displayName": "腾讯网",
                    "siteId": 18,
                    "favicon": "",
                    "url": "http://miui.com/r?url=http%3A%2F%2Finfo.3g.qq.com%2Fg%2Fs%3Faid%3Dindex%26g_ut%3D3%26g_f%3D23462&fr=qt2",
                    "logobg": "5a267092-f3ec-4355-9312-d08873506aea.png"
                },
                {
                    "title": "网易",
                    "thumbnail": "b3c0ade7-1334-4a1b-bb1d-4f4d79a60270.png",
                    "displayName": "网易",
                    "siteId": 21,
                    "favicon": "",
                    "url": "http://miui.com/r?url=http%3A%2F%2F3g.163.com%2Flinks%2F4261&fr=qt2",
                    "logobg": "f562f979-0e9b-4ec2-a125-dc619471617e.png"
                },
                {
                    "title": "凤凰网",
                    "thumbnail": "4e9c235a-4fed-4714-bc4f-e39f71833997.png",
                    "displayName": "凤凰网",
                    "siteId": 16,
                    "favicon": "",
                    "url": "http://miui.com/r?url=http%3A%2F%2Fi.ifeng.com%2F%3Fch%3Drj_mr_dh%26vt%3D5&fr=qt2",
                    "logobg": "5d224ce8-a3bd-43f9-977a-1aa319d18302.png"
                },
                {
                    "title": "3G",
                    "thumbnail": "f8f5b65b-5df7-4b5a-a524-a032746e4bdb.png",
                    "displayName": "3G",
                    "siteId": 20,
                    "favicon": "",
                    "url": "http://miui.com/r?url=http%3A%2F%2Fxuan.3g.cn%2F%3Ffr%3Dmi&fr=qt2",
                    "logobg": "fd9448f1-5f00-4a3d-be71-e68a755ca8c6.png"
                },
                {
                    "title": "头条",
                    "thumbnail": "6e615db2-af3f-40a8-9d6f-77efd8ce40d8.png",
                    "displayName": "头条",
                    "siteId": 17,
                    "favicon": "",
                    "url": "http://miui.com/r?url=http%3A%2F%2Fm.toutiao.com%2F%3Futm_source%3Dxiaomi&fr=qt2",
                    "logobg": "f562f979-0e9b-4ec2-a125-dc619471617e.png"
                },
                {
                    "title": "汽车之家",
                    "thumbnail": "c59bba1b-3ff0-4943-b035-fca7771b61aa.png",
                    "displayName": "汽车之家",
                    "siteId": 26,
                    "favicon": "",
                    "url": "http://miui.com/r?url=http%3A%2F%2Fm.autohome.com.cn%2F%3Ffrom%3Dxiaomi-kz&fr=qt2",
                    "logobg": "1068dbc1-8404-4a1e-8d02-d7a9146c67dd.png"
                },
                {
                    "title": "易车",
                    "thumbnail": "f4a23a0c-8cb5-478b-baff-ea9dfd5c1510.png",
                    "displayName": "易车",
                    "siteId": 28,
                    "favicon": "",
                    "url": "http://miui.com/r?url=http%3A%2F%2Fm.yiche.com%2F%3Fwt.mc_id%3Dydxmmz&fr=qt2",
                    "logobg": "118266c1-23e9-4e71-8081-a482cd6240ed.png"
                },
                {
                    "title": "爱范儿",
                    "thumbnail": "1bb9468e-3b6d-47b0-b4e8-518211958fd3.png",
                    "displayName": "爱范儿",
                    "siteId": 24,
                    "favicon": "",
                    "url": "http://miui.com/r?url=http%3A%2F%2Fwww.ifanr.com%2F&fr=qt2",
                    "logobg": "f562f979-0e9b-4ec2-a125-dc619471617e.png"
                },
                {
                    "title": "雷锋网",
                    "thumbnail": "616dd33e-7678-44d0-8a15-d793578a134c.png",
                    "displayName": "雷锋网",
                    "siteId": 25,
                    "favicon": "",
                    "url": "http://miui.com/r?url=http%3A%2F%2Fwww.leiphone.com%2F&fr=qt2",
                    "logobg": "cc2788c4-3bcd-4266-ac18-81d8a9864d80.png"
                },
                {
                    "title": "36氪",
                    "thumbnail": "bbcbb538-c497-4c38-85e6-44ded0442b5b.png",
                    "displayName": "36氪",
                    "siteId": 23,
                    "favicon": "",
                    "url": "http://miui.com/r?url=http%3A%2F%2Fm.36kr.com%2F&fr=qt2",
                    "logobg": "5a267092-f3ec-4355-9312-d08873506aea.png"
                },
                {
                    "title": "虎嗅",
                    "thumbnail": "b4cdfd10-7a88-4f23-866b-fbe76a92bf49.png",
                    "displayName": "虎嗅",
                    "siteId": 22,
                    "favicon": "",
                    "url": "http://miui.com/r?url=http%3A%2F%2Fm.huxiu.com%2F&fr=qt2",
                    "logobg": "18dd28c2-191f-4d53-b61e-01f577696f48.png"
                },
                {
                    "title": "虎扑",
                    "thumbnail": "8efe680c-4404-4394-8fac-8be09235c968.png",
                    "displayName": "虎扑",
                    "siteId": 27,
                    "favicon": "",
                    "url": "http://miui.com/r?url=http%3A%2F%2Fm.hupu.com%2F&fr=qt2",
                    "logobg": "fd9448f1-5f00-4a3d-be71-e68a755ca8c6.png"
                }
            ],
            "title": "新闻资讯"
        },
        {
            "sites": [
                {
                    "title": "爱淘宝",
                    "thumbnail": "8f85cf4d-078a-4318-91f5-55c948d4b585.png",
                    "displayName": "爱淘宝",
                    "siteId": 8,
                    "favicon": "",
                    "url": "http://miui.com/r?url=http%3A%2F%2Fai.m.taobao.com%2Fvip%2F%3Fpid%3Dmm_32549094_4132303_13390117&fr=qt2",
                    "logobg": "7a60fb5a-e655-4861-a10e-d34f3922a3c7.png"
                },
                {
                    "title": "天猫",
                    "thumbnail": "647d5705-dfe1-4040-9ec6-08e9b2b6d75e.png",
                    "displayName": "天猫",
                    "siteId": 29,
                    "favicon": "",
                    "url": "http://miui.com/r?url=http%3A%2F%2Fm.tmall.com%2F&fr=qt2",
                    "logobg": "406fd4a5-fb31-4903-ad6a-99ef35ab1a21.png"
                },
                {
                    "title": "淘宝网",
                    "thumbnail": "3047b86f-caf9-4940-b213-204ca359bb45.png",
                    "displayName": "淘宝网",
                    "siteId": 15,
                    "favicon": "",
                    "url": "http://miui.com/r?url=http%3A%2F%2Fm.taobao.com%2F&fr=qt2",
                    "logobg": "f046657d-18e6-4a08-ace3-9cbb72318eeb.png"
                },
                {
                    "title": "京东",
                    "thumbnail": "ee45aedc-cef2-476b-91b3-a4dfbbdda825.png",
                    "displayName": "京东",
                    "siteId": 30,
                    "favicon": "",
                    "url": "http://miui.com/r?url=http%3A%2F%2Fm.jd.com%2F&fr=qt2",
                    "logobg": "f562f979-0e9b-4ec2-a125-dc619471617e.png"
                },
                {
                    "title": "亚马逊",
                    "thumbnail": "bde19ab2-77c1-47bd-be26-d7a0e567e8ee.png",
                    "displayName": "亚马逊",
                    "siteId": 31,
                    "favicon": "",
                    "url": "http://miui.com/r?url=http%3A%2F%2Fwww.amazon.cn%2Fgp%2Faw%3Ftag%3Dxiaominav-23&fr=qt2",
                    "logobg": "7a60fb5a-e655-4861-a10e-d34f3922a3c7.png"
                },
                {
                    "title": "当当",
                    "thumbnail": "0273f9c8-2082-4ff5-b324-4f949b089a16.png",
                    "displayName": "当当",
                    "siteId": 32,
                    "favicon": "",
                    "url": "http://miui.com/r?url=http%3A%2F%2Fm.dangdang.com%2F&fr=qt2",
                    "logobg": "27164c0b-d737-44c2-94fa-d0c71cf2b32c.png"
                },
                {
                    "title": "1号店",
                    "thumbnail": "9cac2a1e-b349-4d14-903a-82aaf56fca68.png",
                    "displayName": "1号店",
                    "siteId": 33,
                    "favicon": "",
                    "url": "http://miui.com/r?url=http%3A%2F%2Fm.yihaodian.com%2Fmw%2F%3Ftracker_u%3D10235947855&fr=qt2",
                    "logobg": "e9a97d4d-ff68-4148-a4c3-ff2075695206.png"
                },
                {
                    "title": "凡客",
                    "thumbnail": "accc961a-c68c-4da9-95c1-cee11e4a19e2.png",
                    "displayName": "凡客",
                    "siteId": 34,
                    "favicon": "",
                    "url": "http://miui.com/r?url=http%3A%2F%2Fm.vancl.com%2F&fr=qt2",
                    "logobg": "f562f979-0e9b-4ec2-a125-dc619471617e.png"
                },
                {
                    "title": "唯品会",
                    "thumbnail": "4690e59b-7f1a-4c49-8667-f9db42ed5289.png",
                    "displayName": "唯品会",
                    "siteId": 9,
                    "favicon": "",
                    "url": "http://miui.com/r?url=http%3A%2F%2Fclick.union.vip.com%2Fredirect.php%3Furl%3DeyJkZXN0dXJsIjoiaHR0cDpcL1wvbS52aXAuY29tXC8%2FZj1teG1nZ2UiLCJ1Y29kZSI6InQ4bnl0ZmZ0Iiwic2NoZW1lY29kZSI6IjcyMzU4M2UxIiwiY2hhbiI6Im14bWdnZSJ9&fr=qt2",
                    "logobg": "f58b2918-04ab-4d79-a55b-eaba7651ee3a.png"
                },
                {
                    "title": "聚美优品",
                    "thumbnail": "4d619805-1cb1-48fb-ba3a-5871112cc571.png",
                    "displayName": "聚美优品",
                    "siteId": 35,
                    "favicon": "",
                    "url": "http://miui.com/r?url=http%3A%2F%2Fm.jumei.com%2F&fr=qt2",
                    "logobg": "e9a97d4d-ff68-4148-a4c3-ff2075695206.png"
                },
                {
                    "title": "美团",
                    "thumbnail": "1275d90e-df78-4e5c-ac81-51d7a6b45645.png",
                    "displayName": "美团",
                    "siteId": 37,
                    "favicon": "",
                    "url": "http://miui.com/r?url=http%3A%2F%2Fi.meituan.com%2F%3Fnodown%26utm_source%3Dwaputm_xiaomiicon%26utm_medium%3Dwap&fr=qt2",
                    "logobg": "27164c0b-d737-44c2-94fa-d0c71cf2b32c.png"
                },
                {
                    "title": "苏宁易购",
                    "thumbnail": "7bbed90c-9736-45e8-8e83-0a9ff0813529.png",
                    "displayName": "苏宁易购",
                    "siteId": 36,
                    "favicon": "",
                    "url": "http://miui.com/r?url=http%3A%2F%2Fm.suning.com%2Femall%2Fsnmw_10052_10051_.html%3Futm_source%3Dyd-xiaomiwap%26utm_medium%3Djingpin%26utm_campaign%3D201&fr=qt2",
                    "logobg": "1068dbc1-8404-4a1e-8d02-d7a9146c67dd.png"
                },
                {
                    "title": "58",
                    "thumbnail": "a1c3b909-cef4-401d-ba53-855927d6a767.png",
                    "displayName": "58",
                    "siteId": 11,
                    "favicon": "",
                    "url": "http://miui.com/r?url=http%3A%2F%2Fm.58.com%2F%3Futm_source%3Dxmgg&fr=qt2",
                    "logobg": "cc2788c4-3bcd-4266-ac18-81d8a9864d80.png"
                },
                {
                    "title": "赶集",
                    "thumbnail": "d4637c2d-8bbe-4dcc-9fe5-a711783d0b63.png",
                    "displayName": "赶集",
                    "siteId": 38,
                    "favicon": "",
                    "url": "http://miui.com/r?url=http%3A%2F%2F3g.ganji.com%2F%3Fca_name%3Dxiaomi_mingzhan_007_shouye&fr=qt2",
                    "logobg": "da0258b6-9885-4311-bf8a-ce4f663f94db.png"
                },
                {
                    "title": "安居客",
                    "thumbnail": "7f55a377-1134-4593-9fbe-92a83c7b79e9.png",
                    "displayName": "安居客",
                    "siteId": 39,
                    "favicon": "",
                    "url": "http://miui.com/r?url=http%3A%2F%2Fm.anjuke.com%2Fxinfang%2F%3Futm_source%3Dnavi-xiaomi-gongge2%26pi%3Dnavi-xiaomi-gongge2&fr=qt2",
                    "logobg": "27164c0b-d737-44c2-94fa-d0c71cf2b32c.png"
                }
            ],
            "title": "生活购物"
        },
        {
            "sites": [
                {
                    "title": "百度图片",
                    "thumbnail": "bdb1d611-8f7b-4b5f-89b7-38bac3d497ac.png",
                    "displayName": "百度图片",
                    "siteId": 40,
                    "favicon": "",
                    "url": "http://miui.com/r?url=http%3A%2F%2Fm.baidu.com%2Fimg&fr=qt2",
                    "logobg": "118266c1-23e9-4e71-8081-a482cd6240ed.png"
                },
                {
                    "title": "百思不得姐",
                    "thumbnail": "16f74c45-4111-4762-8c79-bffe02abb960.png",
                    "displayName": "百思不得姐",
                    "siteId": 41,
                    "favicon": "",
                    "url": "http://miui.com/r?url=http%3A%2F%2Fwww.budejie.com%2F&fr=qt2",
                    "logobg": "5d224ce8-a3bd-43f9-977a-1aa319d18302.png"
                },
                {
                    "title": "美女辣图",
                    "thumbnail": "9cdce8cc-f1f0-495a-a228-2d5862fe00d3.png",
                    "displayName": "美女辣图",
                    "siteId": 42,
                    "favicon": "",
                    "url": "http://miui.com/r?url=http%3A%2F%2Flatu.3g.cn%2F&fr=qt2",
                    "logobg": "fd9448f1-5f00-4a3d-be71-e68a755ca8c6.png"
                },
                {
                    "title": "易查美图",
                    "thumbnail": "4b9a4786-ae7c-4fff-af5e-ce7c826c7516.png",
                    "displayName": "易查美图",
                    "siteId": 43,
                    "favicon": "",
                    "url": "http://miui.com/r?url=http%3A%2F%2Fmm.yicha.cn%2F&fr=qt2",
                    "logobg": "da0258b6-9885-4311-bf8a-ce4f663f94db.png"
                },
                {
                    "title": "宜搜美图",
                    "thumbnail": "380c2996-e677-4164-a2db-01e85104cf62.png",
                    "displayName": "宜搜美图",
                    "siteId": 44,
                    "favicon": "",
                    "url": "http://miui.com/r?url=http%3A%2F%2Ftu.easou.com%2F&fr=qt2",
                    "logobg": "f562f979-0e9b-4ec2-a125-dc619471617e.png"
                },
                {
                    "title": "乐讯美图",
                    "thumbnail": "0bcd7460-f61e-4741-adf9-a51759c18239.png",
                    "displayName": "乐讯美图",
                    "siteId": 45,
                    "favicon": "",
                    "url": "http://miui.com/r?url=http%3A%2F%2Fp.lexun.net%2Fmt%2Findex.html&fr=qt2",
                    "logobg": "7a60fb5a-e655-4861-a10e-d34f3922a3c7.png"
                },
                {
                    "title": "糗事百科",
                    "thumbnail": "9ffe0aed-7207-4428-9f7f-cbec31789ff2.png",
                    "displayName": "糗事百科",
                    "siteId": 46,
                    "favicon": "",
                    "url": "http://miui.com/r?url=http%3A%2F%2Fwww.qiushibaike.com%2F&fr=qt2",
                    "logobg": "fd9448f1-5f00-4a3d-be71-e68a755ca8c6.png"
                },
                {
                    "title": "冷笑话精选",
                    "thumbnail": "b21c528d-a2be-40e2-b913-2694f6214d90.png",
                    "displayName": "冷笑话精选",
                    "siteId": 47,
                    "favicon": "",
                    "url": "http://miui.com/r?url=http%3A%2F%2Fm.lengxiaohua.cn%2F&fr=qt2",
                    "logobg": "18dd28c2-191f-4d53-b61e-01f577696f48.png"
                },
                {
                    "title": "捧腹网",
                    "thumbnail": "29914316-ccfd-4056-aaa5-162ad0497ca3.png",
                    "displayName": "捧腹网",
                    "siteId": 48,
                    "favicon": "",
                    "url": "http://miui.com/r?url=http%3A%2F%2Fm.pengfu.com%2F&fr=qt2",
                    "logobg": "27164c0b-d737-44c2-94fa-d0c71cf2b32c.png"
                }
            ],
            "title": "美图搞笑"
        },
        {
            "sites": [
                {
                    "title": "优酷",
                    "thumbnail": "d93e55cd-96f3-4f01-b5e2-923ce0bc2756.png",
                    "displayName": "优酷",
                    "siteId": 49,
                    "favicon": "",
                    "url": "http://miui.com/r?url=http%3A%2F%2Fwww.youku.com%2F&fr=qt2",
                    "logobg": "18dd28c2-191f-4d53-b61e-01f577696f48.png"
                },
                {
                    "title": "易查小说",
                    "thumbnail": "a117a437-2319-4b8c-a885-4b679fcb7948.png",
                    "displayName": "易查小说",
                    "siteId": 57,
                    "favicon": "",
                    "url": "http://miui.com/r?url=http%3A%2F%2Ftbook.yicha.cn%2F&fr=qt2",
                    "logobg": "da0258b6-9885-4311-bf8a-ce4f663f94db.png"
                },
                {
                    "title": "红袖添香",
                    "thumbnail": "db564692-d949-4df2-841f-450f550d1e88.png",
                    "displayName": "红袖添香",
                    "siteId": 56,
                    "favicon": "",
                    "url": "http://miui.com/r?url=http%3A%2F%2Fm.hongxiu.com%2F&fr=qt2",
                    "logobg": "e9a97d4d-ff68-4148-a4c3-ff2075695206.png"
                },
                {
                    "title": "手机阅读",
                    "thumbnail": "917c4d97-0e73-409c-8599-9b61fc52fb74.png",
                    "displayName": "手机阅读",
                    "siteId": 55,
                    "favicon": "",
                    "url": "http://miui.com/r?url=http%3A%2F%2Fwap.cmread.com%2Fr%2Fp%2Fycindex.jsp%3Fvt%3D2%26cm%3Dm2470002&fr=qt2",
                    "logobg": "1068dbc1-8404-4a1e-8d02-d7a9146c67dd.png"
                },
                {
                    "title": "起点中文网",
                    "thumbnail": "b74297dd-cc72-46d0-a9e1-4820f5fdd811.png",
                    "displayName": "起点中文网",
                    "siteId": 54,
                    "favicon": "",
                    "url": "http://miui.com/r?url=http%3A%2F%2Fm.qidian.com%2F&fr=qt2",
                    "logobg": "f562f979-0e9b-4ec2-a125-dc619471617e.png"
                },
                {
                    "title": "土豆",
                    "thumbnail": "4d6457ed-47ee-458a-9b8d-897949e6565b.png",
                    "displayName": "土豆",
                    "siteId": 53,
                    "favicon": "",
                    "url": "http://miui.com/r?url=http%3A%2F%2Fwww.tudou.com%2F&fr=qt2",
                    "logobg": "7a60fb5a-e655-4861-a10e-d34f3922a3c7.png"
                },
                {
                    "title": "乐视",
                    "thumbnail": "fc040879-7f5e-49d5-8d29-5e35dc80b2c8.png",
                    "displayName": "乐视",
                    "siteId": 52,
                    "favicon": "",
                    "url": "http://miui.com/r?url=http%3A%2F%2Fm.letv.com%2F&fr=qt2",
                    "logobg": "18dd28c2-191f-4d53-b61e-01f577696f48.png"
                },
                {
                    "title": "爱奇艺",
                    "thumbnail": "3c375223-8307-4f3f-8093-63ac5a3d9e09.png",
                    "displayName": "爱奇艺",
                    "siteId": 51,
                    "favicon": "",
                    "url": "http://miui.com/r?url=http%3A%2F%2Fm.iqiyi.com%2F&fr=qt2",
                    "logobg": "da0258b6-9885-4311-bf8a-ce4f663f94db.png"
                },
                {
                    "title": "搜狐视频",
                    "thumbnail": "161f3135-0602-434b-8edb-b8c497789bd6.png",
                    "displayName": "搜狐视频",
                    "siteId": 50,
                    "favicon": "",
                    "url": "http://miui.com/r?url=http%3A%2F%2Fm.tv.sohu.com%2F&fr=qt2",
                    "logobg": "fd9448f1-5f00-4a3d-be71-e68a755ca8c6.png"
                },
                {
                    "title": "宜搜小说",
                    "thumbnail": "97b17ac6-2dfc-45b4-959e-1064d07f19f0.png",
                    "displayName": "宜搜小说",
                    "siteId": 58,
                    "favicon": "",
                    "url": "http://miui.com/r?url=http%3A%2F%2Fbook.easou.com%2F&fr=qt2",
                    "logobg": "f562f979-0e9b-4ec2-a125-dc619471617e.png"
                }
            ],
            "title": "视频小说"
        },
        {
            "sites": [
                {
                    "title": "微博",
                    "thumbnail": "0f9ff846-9a82-43cb-aaa0-a09183daa193.png",
                    "displayName": "微博",
                    "siteId": 59,
                    "favicon": "",
                    "url": "http://miui.com/r?url=http%3A%2F%2Fweibo.cn%2F&fr=qt2",
                    "logobg": "81a57379-d0ed-40ce-a846-7e98137da246.png"
                },
                {
                    "title": "百合",
                    "thumbnail": "cdcec952-50ee-48f4-b709-ddef1a3513cb.png",
                    "displayName": "百合",
                    "siteId": 67,
                    "favicon": "",
                    "url": "http://miui.com/r?url=http%3A%2F%2F3g.baihe.com%2F&fr=qt2",
                    "logobg": "cc2788c4-3bcd-4266-ac18-81d8a9864d80.png"
                },
                {
                    "title": "知乎",
                    "thumbnail": "fe39b806-cc42-4ed8-8c49-6920f756a697.png",
                    "displayName": "知乎",
                    "siteId": 66,
                    "favicon": "",
                    "url": "http://miui.com/r?url=http%3A%2F%2Fwww.zhihu.com%2F&fr=qt2",
                    "logobg": "5a267092-f3ec-4355-9312-d08873506aea.png"
                },
                {
                    "title": "天涯",
                    "thumbnail": "224f8d31-ba2e-48f6-b7a7-c83cbbe79e0c.png",
                    "displayName": "天涯",
                    "siteId": 65,
                    "favicon": "",
                    "url": "http://miui.com/r?url=http%3A%2F%2Fwww.tianya.cn%2Fm%2F&fr=qt2",
                    "logobg": "1068dbc1-8404-4a1e-8d02-d7a9146c67dd.png"
                },
                {
                    "title": "猫扑",
                    "thumbnail": "c4977152-83f4-4ec9-914e-8641d0b5a753.png",
                    "displayName": "猫扑",
                    "siteId": 64,
                    "favicon": "",
                    "url": "http://miui.com/r?url=http%3A%2F%2Fm.mop.com%2F&fr=qt2",
                    "logobg": "f046657d-18e6-4a08-ace3-9cbb72318eeb.png"
                },
                {
                    "title": "豆瓣",
                    "thumbnail": "7b79b1ea-fa27-4005-979d-f59340c4ac5c.png",
                    "displayName": "豆瓣",
                    "siteId": 63,
                    "favicon": "",
                    "url": "http://miui.com/r?url=http%3A%2F%2Fwww.douban.com%2F&fr=qt2",
                    "logobg": "27164c0b-d737-44c2-94fa-d0c71cf2b32c.png"
                },
                {
                    "title": "人人网",
                    "thumbnail": "6aeace53-7427-4c8c-8e28-f35f631bde6e.png",
                    "displayName": "人人网",
                    "siteId": 62,
                    "favicon": "",
                    "url": "http://miui.com/r?url=http%3A%2F%2Fm.renren.com&fr=qt2",
                    "logobg": "118266c1-23e9-4e71-8081-a482cd6240ed.png"
                },
                {
                    "title": "空间",
                    "thumbnail": "8bf54fc3-f838-487b-8ee3-f33e39758141.png",
                    "displayName": "空间",
                    "siteId": 61,
                    "favicon": "",
                    "url": "http://miui.com/r?url=http%3A%2F%2Fqzone.qq.com&fr=qt2",
                    "logobg": "5a267092-f3ec-4355-9312-d08873506aea.png"
                },
                {
                    "title": "贴吧",
                    "thumbnail": "d779200f-808e-4761-9eb1-bf4e767b5bc5.png",
                    "displayName": "贴吧",
                    "siteId": 60,
                    "favicon": "",
                    "url": "http://miui.com/r?url=http%3A%2F%2Ftieba.baidu.com%2F&fr=qt2",
                    "logobg": "118266c1-23e9-4e71-8081-a482cd6240ed.png"
                },
                {
                    "title": "世纪佳缘",
                    "thumbnail": "b641f077-ac2e-4a34-8a88-a2a8c27ee644.png",
                    "displayName": "世纪佳缘",
                    "siteId": 68,
                    "favicon": "",
                    "url": "http://miui.com/r?url=http%3A%2F%2Fm.jiayuan.com%2F&fr=qt2",
                    "logobg": "f58b2918-04ab-4d79-a55b-eaba7651ee3a.png"
                }
            ],
            "title": "社交交友"
        },
        {
            "sites": [
                {
                    "title": "携程",
                    "thumbnail": "cb451ff7-7828-4961-8c84-a1843de84560.png",
                    "displayName": "携程",
                    "siteId": 69,
                    "favicon": "",
                    "url": "http://miui.com/r?url=http%3A%2F%2Fm.ctrip.com%2Fhtml5%2F&fr=qt2",
                    "logobg": "5a267092-f3ec-4355-9312-d08873506aea.png"
                },
                {
                    "title": "艺龙",
                    "thumbnail": "27993122-5034-4647-8a8f-0d28b16bc004.png",
                    "displayName": "艺龙",
                    "siteId": 70,
                    "favicon": "",
                    "url": "http://miui.com/r?url=http%3A%2F%2Fm.elong.com%2F&fr=qt2",
                    "logobg": "5a267092-f3ec-4355-9312-d08873506aea.png"
                },
                {
                    "title": "去哪儿",
                    "thumbnail": "64b78032-4f4f-4d37-89ec-34793c81afac.png",
                    "displayName": "去哪儿",
                    "siteId": 10,
                    "favicon": "",
                    "url": "http://miui.com/r?url=http%3A%2F%2Ftouch.qunar.com%2F%3Fbd_source%3Dxiaomigongge&fr=qt2",
                    "logobg": "81a57379-d0ed-40ce-a846-7e98137da246.png"
                },
                {
                    "title": "酷讯",
                    "thumbnail": "99ebe342-1913-419d-85ed-d88dec024dd7.png",
                    "displayName": "酷讯",
                    "siteId": 71,
                    "favicon": "",
                    "url": "http://miui.com/r?url=http%3A%2F%2Fm.kuxun.cn%2F&fr=qt2",
                    "logobg": "5d224ce8-a3bd-43f9-977a-1aa319d18302.png"
                },
                {
                    "title": "百度旅游",
                    "thumbnail": "c79e25ad-9c53-4d14-b5e6-11894c282b9f.png",
                    "displayName": "百度旅游",
                    "siteId": 72,
                    "favicon": "",
                    "url": "http://miui.com/r?url=http%3A%2F%2Flvyou.baidu.com%2F&fr=qt2",
                    "logobg": "118266c1-23e9-4e71-8081-a482cd6240ed.png"
                },
                {
                    "title": "蚂蜂窝",
                    "thumbnail": "feb4020b-3887-4e76-9776-8b6523b4e182.png",
                    "displayName": "蚂蜂窝",
                    "siteId": 73,
                    "favicon": "",
                    "url": "http://miui.com/r?url=http%3A%2F%2Fm.mafengwo.cn%2F&fr=qt2",
                    "logobg": "fd9448f1-5f00-4a3d-be71-e68a755ca8c6.png"
                },
                {
                    "title": "大众点评",
                    "thumbnail": "ce44f7d3-c4f3-44d9-b863-e10992a1f925.png",
                    "displayName": "大众点评",
                    "siteId": 74,
                    "favicon": "",
                    "url": "http://miui.com/r?url=http%3A%2F%2Fm.dianping.com%2F&fr=qt2",
                    "logobg": "f046657d-18e6-4a08-ace3-9cbb72318eeb.png"
                },
                {
                    "title": "豆果美食",
                    "thumbnail": "4e90e75d-5c31-47c9-9848-e7532a9b3696.png",
                    "displayName": "豆果美食",
                    "siteId": 75,
                    "favicon": "",
                    "url": "http://miui.com/r?url=http%3A%2F%2Fm.douguo.com%2F&fr=qt2",
                    "logobg": "fd9448f1-5f00-4a3d-be71-e68a755ca8c6.png"
                },
                {
                    "title": "下厨房",
                    "thumbnail": "9e731949-c847-4fd1-bed7-6256dd8f0237.png",
                    "displayName": "下厨房",
                    "siteId": 76,
                    "favicon": "",
                    "url": "http://miui.com/r?url=http%3A%2F%2Fm.xiachufang.com%2F&fr=qt2",
                    "logobg": "7a60fb5a-e655-4861-a10e-d34f3922a3c7.png"
                }
            ],
            "title": "美食旅行"
        },
        {
            "sites": [
                {
                    "title": "融360",
                    "thumbnail": "e6a182dd-9525-458c-8681-8eae870c62f6.png",
                    "displayName": "融360",
                    "siteId": 77,
                    "favicon": "",
                    "url": "http://miui.com/r?url=http%3A%2F%2Fm.rong360.com%2F&fr=qt2",
                    "logobg": "5a267092-f3ec-4355-9312-d08873506aea.png"
                },
                {
                    "title": "宜车贷",
                    "thumbnail": "be0a1d41-c127-45d0-9344-5346e7e4b379.png",
                    "displayName": "宜车贷",
                    "siteId": 78,
                    "favicon": "",
                    "url": "http://miui.com/r?url=http%3A%2F%2Fwap.yirendai.com%2F&fr=qt2",
                    "logobg": "18dd28c2-191f-4d53-b61e-01f577696f48.png"
                },
                {
                    "title": "彩巴巴",
                    "thumbnail": "06399a98-edf6-4a29-bd9f-8f1ca94cde4b.png",
                    "displayName": "彩巴巴",
                    "siteId": 79,
                    "favicon": "",
                    "url": "http://miui.com/r?url=http%3A%2F%2Fm.cai88.com%2F&fr=qt2",
                    "logobg": "f046657d-18e6-4a08-ace3-9cbb72318eeb.png"
                },
                {
                    "title": "乐彩",
                    "thumbnail": "95459bb9-248b-4c26-aabe-7efba6a52fb3.png",
                    "displayName": "乐彩",
                    "siteId": 80,
                    "favicon": "",
                    "url": "http://miui.com/r?url=http%3A%2F%2Ftouch.lecai.com%2F&fr=qt2",
                    "logobg": "7a60fb5a-e655-4861-a10e-d34f3922a3c7.png"
                },
                {
                    "title": "500彩票",
                    "thumbnail": "ac85810d-bc4f-4944-913d-f4949bd84c96.png",
                    "displayName": "500彩票",
                    "siteId": 81,
                    "favicon": "",
                    "url": "http://miui.com/r?url=http%3A%2F%2F3g.500.com%2F&fr=qt2",
                    "logobg": "f562f979-0e9b-4ec2-a125-dc619471617e.png"
                },
                {
                    "title": "爱乐透",
                    "thumbnail": "e4197fa6-be55-4421-97b4-63bff4f392c8.png",
                    "displayName": "爱乐透",
                    "siteId": 82,
                    "favicon": "",
                    "url": "http://miui.com/r?url=http%3A%2F%2F3g.iletou.com%2F&fr=qt2",
                    "logobg": "e9a97d4d-ff68-4148-a4c3-ff2075695206.png"
                }
            ],
            "title": "理财服务"
        },
        {
            "sites": [
                {
                    "title": "小米网",
                    "thumbnail": "797af286-cd83-4e6e-af55-a9da0472fe98.png",
                    "displayName": "小米网",
                    "siteId": 14,
                    "favicon": "",
                    "url": "http://miui.com/r?url=http%3A%2F%2Fa.union.mi.com%2Fmua%3Fc%3D10508.0001&fr=qt2",
                    "logobg": "7a60fb5a-e655-4861-a10e-d34f3922a3c7.png"
                },
                {
                    "title": "玩游戏",
                    "thumbnail": "53159590-4cd4-4589-9d22-a0656eaa707e.png",
                    "displayName": "玩游戏",
                    "siteId": 13,
                    "favicon": "",
                    "url": "http://miui.com/r?url=http%3A%2F%2Fgame.xiaomi.com%2Fwap%2Findex.php&fr=qt2",
                    "logobg": "7a60fb5a-e655-4861-a10e-d34f3922a3c7.png"
                },
                {
                    "title": "MIUI论坛",
                    "thumbnail": "1a41d980-fc90-4a20-b367-e8d19bd4f11a.png",
                    "displayName": "MIUI论坛",
                    "siteId": 83,
                    "favicon": "",
                    "url": "http://miui.com/r?url=http%3A%2F%2Fwww.miui.com%2Fforum.php&fr=qt2",
                    "logobg": "f046657d-18e6-4a08-ace3-9cbb72318eeb.png"
                },
                {
                    "title": "应用商店",
                    "thumbnail": "162758ba-015b-4021-a1ef-80ce8cbee55e.png",
                    "displayName": "应用商店",
                    "siteId": 84,
                    "favicon": "",
                    "url": "http://miui.com/r?url=http%3A%2F%2Fm.app.xiaomi.com%2F&fr=qt2",
                    "logobg": "7a60fb5a-e655-4861-a10e-d34f3922a3c7.png"
                },
                {
                    "title": "读小说",
                    "thumbnail": "e9e9678a-4a09-4c27-b9df-2ebff2987d50.png",
                    "displayName": "读小说",
                    "siteId": 12,
                    "favicon": "",
                    "url": "http://miui.com/r?url=http%3A%2F%2Freader.browser.miui.com%2F%23from%3Dmiindex&fr=qt2",
                    "logobg": "da0258b6-9885-4311-bf8a-ce4f663f94db.png"
                },
                {
                    "title": "轻应用",
                    "thumbnail": "8b8b8cc1-a4a8-4c5a-b238-0295a9620265.png",
                    "displayName": "轻应用",
                    "siteId": 85,
                    "favicon": "",
                    "url": "http://miui.com/r?url=Intent%3D%7Bcomponent%3Dcom.android.browser%2Fmiui.browser.webapps.WebAppCenterActivity%7D&fr=qt2",
                    "logobg": "18dd28c2-191f-4d53-b61e-01f577696f48.png"
                }
            ],
            "title": "小米专区"
        }
    ],
    "topquicklinks": [
        {
            "title": "头条",
            "thumbnail": "6e615db2-af3f-40a8-9d6f-77efd8ce40d8.png",
            "displayName": "头条",
            "siteId": 17,
            "favicon": "",
            "url": "http://miui.com/r?url=http%3A%2F%2Fm.toutiao.com%2F%3Futm_source%3Dxiaomi&fr=qt2",
            "logobg": "f562f979-0e9b-4ec2-a125-dc619471617e.png"
        },
        {
            "title": "凤凰网",
            "thumbnail": "4e9c235a-4fed-4714-bc4f-e39f71833997.png",
            "displayName": "凤凰网",
            "siteId": 16,
            "favicon": "",
            "url": "http://miui.com/r?url=http%3A%2F%2Fi.ifeng.com%2F%3Fch%3Drj_mr_dh%26vt%3D5&fr=qt2",
            "logobg": "5d224ce8-a3bd-43f9-977a-1aa319d18302.png"
        },
        {
            "title": "腾讯网",
            "thumbnail": "d4114a0f-5e3f-432f-8423-915608fa7fbc.png",
            "displayName": "腾讯网",
            "siteId": 18,
            "favicon": "",
            "url": "http://miui.com/r?url=http%3A%2F%2Finfo.3g.qq.com%2Fg%2Fs%3Faid%3Dindex%26g_ut%3D3%26g_f%3D23462&fr=qt2",
            "logobg": "5a267092-f3ec-4355-9312-d08873506aea.png"
        },
        {
            "title": "搜狐",
            "thumbnail": "1c46e3d5-bd37-4d3b-b522-ee68d7669493.png",
            "displayName": "搜狐",
            "siteId": 19,
            "favicon": "",
            "url": "http://miui.com/r?url=http%3A%2F%2Fm.sohu.com%2F%3Fpartner%3Dxiaomi%26_trans_%3D000012_xm_sy&fr=qt2",
            "logobg": "fd9448f1-5f00-4a3d-be71-e68a755ca8c6.png"
        },
        {
            "title": "3G",
            "thumbnail": "f8f5b65b-5df7-4b5a-a524-a032746e4bdb.png",
            "displayName": "3G",
            "siteId": 20,
            "favicon": "",
            "url": "http://miui.com/r?url=http%3A%2F%2Fxuan.3g.cn%2F%3Ffr%3Dmi&fr=qt2",
            "logobg": "fd9448f1-5f00-4a3d-be71-e68a755ca8c6.png"
        },
        {
            "title": "网易",
            "thumbnail": "b3c0ade7-1334-4a1b-bb1d-4f4d79a60270.png",
            "displayName": "网易",
            "siteId": 21,
            "favicon": "",
            "url": "http://miui.com/r?url=http%3A%2F%2F3g.163.com%2Flinks%2F4261&fr=qt2",
            "logobg": "f562f979-0e9b-4ec2-a125-dc619471617e.png"
        }
    ]
}
